{
    "experiments": [
        { 
            "technique": "AUTOCOMPASTE", 
            "granularity": "phrase",
            "text_window": "1",
            "data_file": "data/1text.json",
            "stimuli": "AC power supply?" 
        },
        { 
            "technique": "AUTOCOMPASTE", 
            "granularity": "phrase",
            "text_window": "1",
            "data_file": "data/1text.json",
            "stimuli": "acceptor atoms?" 
        },
        { 
            "technique": "AUTOCOMPASTE", 
            "granularity": "phrase",
            "text_window": "1",
            "data_file": "data/1text.json",
            "stimuli": "Trivalent atoms" 
        },
        { 
            "technique": "AUTOCOMPASTE", 
            "granularity": "sentence",
            "text_window": "1",
            "data_file": "data/1text.json",
            "stimuli": "A filter that uses an amplifier in addition to reactive components to pass or reject selected frequencies." 
        },
        { 
            "technique": "AUTOCOMPASTE", 
            "granularity": "sentence",
            "text_window": "1",
            "data_file": "data/1text.json",
            "stimuli": "Device used to transform mechanical energy into AC electrical power." 
        },
        { 
            "technique": "AUTOCOMPASTE", 
            "granularity": "sentence",
            "text_window": "1",
            "data_file": "data/1text.json",
            "stimuli": "The region of BJT operation between saturation and cut off used for linear amplification." 
        },
        { 
            "technique": "AUTOCOMPASTE", 
            "granularity": "paragraph",
            "text_window": "1",
            "data_file": "data/1text.json",
            "stimuli": "What is absorption? Loss or dissipation of energy as it travels through a medium." 
        },
        { 
            "technique": "AUTOCOMPASTE", 
            "granularity": "paragraph",
            "text_window": "1",
            "data_file": "data/1text.json",
            "stimuli": "What is active component? A component that changes the amplitude of a signal between input and output." 
        },
        { 
            "technique": "AUTOCOMPASTE", 
            "granularity": "paragraph",
            "text_window": "1",
            "data_file": "data/1text.json",
            "stimuli": "What is active region? The region of BJT operation between saturation and cut off used for linear amplification." 
        },
        { 
            "technique": "AUTOCOMPASTE", 
            "granularity": "phrase",
            "text_window": "3",
            "data_file": "data/3text.json",
            "stimuli": "is avionics?" 
        },
        { 
            "technique": "AUTOCOMPASTE", 
            "granularity": "phrase",
            "text_window": "3",
            "data_file": "data/3text.json",
            "stimuli": "forward biased" 
        },
        { 
            "technique": "AUTOCOMPASTE", 
            "granularity": "phrase",
            "text_window": "3",
            "data_file": "data/3text.json",
            "stimuli": "common noun" 
        },
        { 
            "technique": "AUTOCOMPASTE", 
            "granularity": "sentence",
            "text_window": "3",
            "data_file": "data/3text.json",
            "stimuli": "A method of biasing a BJT in which the bias voltage is supplied to the base by means of a resistor." 
        },
        { 
            "technique": "AUTOCOMPASTE", 
            "granularity": "sentence",
            "text_window": "3",
            "data_file": "data/3text.json",
            "stimuli": "Relating to frequencies that can be heard by the human ear." 
        },
        { 
            "technique": "AUTOCOMPASTE", 
            "granularity": "sentence",
            "text_window": "3",
            "data_file": "data/3text.json",
            "stimuli": "Condition that occurs when a bridge circuit is adjusted to produce a zero output." 
        },
        { 
            "technique": "AUTOCOMPASTE", 
            "granularity": "paragraph",
            "text_window": "3",
            "data_file": "data/3text.json",
            "stimuli": "Every noun must be accompanied by the article, if any, corresponding to its definiteness, and the lack of an article (considered a zero article) itself specifies a certain definiteness. This is in contrast to other adjectives and determiners, which are typically optional." 
        },
        { 
            "technique": "AUTOCOMPASTE", 
            "granularity": "paragraph",
            "text_window": "3",
            "data_file": "data/3text.json",
            "stimuli": "What is balanced bridge? Condition that occurs when a bridge circuit is adjusted to produce a zero output." 
        },
        { 
            "technique": "AUTOCOMPASTE", 
            "granularity": "paragraph",
            "text_window": "3",
            "data_file": "data/3text.json",
            "stimuli": "What is barrier potential? The natural difference of potential that exists across a forward biased pn junction." 
        },
        { 
            "technique": "AUTOCOMPASTE", 
            "granularity": "phrase",
            "text_window": "6",
            "data_file": "data/texts.json",
            "stimuli": "bistable multivibrator?" 
        },
        { 
            "technique": "AUTOCOMPASTE", 
            "granularity": "phrase",
            "text_window": "6",
            "data_file": "data/texts.json",
            "stimuli": "falls back" 
        },
        { 
            "technique": "AUTOCOMPASTE", 
            "granularity": "phrase",
            "text_window": "6",
            "data_file": "data/texts.json",
            "stimuli": "obligatory nature" 
        },
        { 
            "technique": "AUTOCOMPASTE", 
            "granularity": "sentence",
            "text_window": "6",
            "data_file": "data/texts.json",
            "stimuli": "A tuned circuit designed to pass a band of frequencies between a lower cut-off frequency (f1) and a higher cut-off frequency (f2)." 
        },
        { 
            "technique": "AUTOCOMPASTE", 
            "granularity": "sentence",
            "text_window": "6",
            "data_file": "data/texts.json",
            "stimuli": "(BJT), A three terminal device in which emitter to collector current is controlled by base current." 
        },
        { 
            "technique": "AUTOCOMPASTE", 
            "granularity": "sentence",
            "text_window": "6",
            "data_file": "data/texts.json",
            "stimuli": "An oscillator that uses an isolation transformer to achieve positive feedback from output to input." 
        },
        { 
            "technique": "AUTOCOMPASTE", 
            "granularity": "paragraph",
            "text_window": "6",
            "data_file": "data/texts.json",
            "stimuli": "What is Admittance? (symbol \"Y\") Measure of how easily AC will flow through a circuit. Admittance is the reciprocal of impedance and is measured in siemens." 
        },
        { 
            "technique": "AUTOCOMPASTE", 
            "granularity": "paragraph",
            "text_window": "6",
            "data_file": "data/texts.json",
            "stimuli": "What is alternating current? An electric current that rises to a maximum in one direction, falls back to zero and then rises to a maximum in the opposite direction and then repeats." 
        },
        { 
            "technique": "AUTOCOMPASTE", 
            "granularity": "paragraph",
            "text_window": "6",
            "data_file": "data/texts.json",
            "stimuli": "What is binary? A number system having only two symbols, 0 and 1. A base 2 number system." 
        },
        { 
            "technique": "TRADITIONAL", 
            "granularity": "phrase",
            "text_window": "1",
            "data_file": "data/1text.json",
            "stimuli": "AC power supply?" 
        },
        { 
            "technique": "TRADITIONAL", 
            "granularity": "phrase",
            "text_window": "1",
            "data_file": "data/1text.json",
            "stimuli": "acceptor atoms?" 
        },
        { 
            "technique": "TRADITIONAL", 
            "granularity": "phrase",
            "text_window": "1",
            "data_file": "data/1text.json",
            "stimuli": "Trivalent atoms" 
        },
        { 
            "technique": "TRADITIONAL", 
            "granularity": "sentence",
            "text_window": "1",
            "data_file": "data/1text.json",
            "stimuli": "A filter that uses an amplifier in addition to reactive components to pass or reject selected frequencies." 
        },
        { 
            "technique": "TRADITIONAL", 
            "granularity": "sentence",
            "text_window": "1",
            "data_file": "data/1text.json",
            "stimuli": "Device used to transform mechanical energy into AC electrical power." 
        },
        { 
            "technique": "TRADITIONAL", 
            "granularity": "sentence",
            "text_window": "1",
            "data_file": "data/1text.json",
            "stimuli": "The region of BJT operation between saturation and cut off used for linear amplification." 
        },
        { 
            "technique": "TRADITIONAL", 
            "granularity": "paragraph",
            "text_window": "1",
            "data_file": "data/1text.json",
            "stimuli": "What is absorption? Loss or dissipation of energy as it travels through a medium." 
        },
        { 
            "technique": "TRADITIONAL", 
            "granularity": "paragraph",
            "text_window": "1",
            "data_file": "data/1text.json",
            "stimuli": "What is active component? A component that changes the amplitude of a signal between input and output." 
        },
        { 
            "technique": "TRADITIONAL", 
            "granularity": "paragraph",
            "text_window": "1",
            "data_file": "data/1text.json",
            "stimuli": "What is active region? The region of BJT operation between saturation and cut off used for linear amplification." 
        },
        { 
            "technique": "TRADITIONAL", 
            "granularity": "phrase",
            "text_window": "3",
            "data_file": "data/3text.json",
            "stimuli": "is avionics?" 
        },
        { 
            "technique": "TRADITIONAL", 
            "granularity": "phrase",
            "text_window": "3",
            "data_file": "data/3text.json",
            "stimuli": "forward biased" 
        },
        { 
            "technique": "TRADITIONAL", 
            "granularity": "phrase",
            "text_window": "3",
            "data_file": "data/3text.json",
            "stimuli": "common noun" 
        },
        { 
            "technique": "TRADITIONAL", 
            "granularity": "sentence",
            "text_window": "3",
            "data_file": "data/3text.json",
            "stimuli": "A method of biasing a BJT in which the bias voltage is supplied to the base by means of a resistor." 
        },
        { 
            "technique": "TRADITIONAL", 
            "granularity": "sentence",
            "text_window": "3",
            "data_file": "data/3text.json",
            "stimuli": "Relating to frequencies that can be heard by the human ear." 
        },
        { 
            "technique": "TRADITIONAL", 
            "granularity": "sentence",
            "text_window": "3",
            "data_file": "data/3text.json",
            "stimuli": "Condition that occurs when a bridge circuit is adjusted to produce a zero output." 
        },
        { 
            "technique": "TRADITIONAL", 
            "granularity": "paragraph",
            "text_window": "3",
            "data_file": "data/3text.json",
            "stimuli": "Every noun must be accompanied by the article, if any, corresponding to its definiteness, and the lack of an article (considered a zero article) itself specifies a certain definiteness. This is in contrast to other adjectives and determiners, which are typically optional." 
        },
        { 
            "technique": "TRADITIONAL", 
            "granularity": "paragraph",
            "text_window": "3",
            "data_file": "data/3text.json",
            "stimuli": "What is balanced bridge? Condition that occurs when a bridge circuit is adjusted to produce a zero output." 
        },
        { 
            "technique": "TRADITIONAL", 
            "granularity": "paragraph",
            "text_window": "3",
            "data_file": "data/3text.json",
            "stimuli": "What is barrier potential? The natural difference of potential that exists across a forward biased pn junction." 
        },
        { 
            "technique": "TRADITIONAL", 
            "granularity": "phrase",
            "text_window": "6",
            "data_file": "data/texts.json",
            "stimuli": "bistable multivibrator?" 
        },
        { 
            "technique": "TRADITIONAL", 
            "granularity": "phrase",
            "text_window": "6",
            "data_file": "data/texts.json",
            "stimuli": "falls back" 
        },
        { 
            "technique": "TRADITIONAL", 
            "granularity": "phrase",
            "text_window": "6",
            "data_file": "data/texts.json",
            "stimuli": "obligatory nature" 
        },
        { 
            "technique": "TRADITIONAL", 
            "granularity": "sentence",
            "text_window": "6",
            "data_file": "data/texts.json",
            "stimuli": "A tuned circuit designed to pass a band of frequencies between a lower cut-off frequency (f1) and a higher cut-off frequency (f2)." 
        },
        { 
            "technique": "TRADITIONAL", 
            "granularity": "sentence",
            "text_window": "6",
            "data_file": "data/texts.json",
            "stimuli": "(BJT), A three terminal device in which emitter to collector current is controlled by base current." 
        },
        { 
            "technique": "TRADITIONAL", 
            "granularity": "sentence",
            "text_window": "6",
            "data_file": "data/texts.json",
            "stimuli": "An oscillator that uses an isolation transformer to achieve positive feedback from output to input." 
        },
        { 
            "technique": "TRADITIONAL", 
            "granularity": "paragraph",
            "text_window": "6",
            "data_file": "data/texts.json",
            "stimuli": "What is Admittance? (symbol \"Y\") Measure of how easily AC will flow through a circuit. Admittance is the reciprocal of impedance and is measured in siemens." 
        },
        { 
            "technique": "TRADITIONAL", 
            "granularity": "paragraph",
            "text_window": "6",
            "data_file": "data/texts.json",
            "stimuli": "What is alternating current? An electric current that rises to a maximum in one direction, falls back to zero and then rises to a maximum in the opposite direction and then repeats." 
        },
        { 
            "technique": "TRADITIONAL", 
            "granularity": "paragraph",
            "text_window": "6",
            "data_file": "data/texts.json",
            "stimuli": "What is binary? A number system having only two symbols, 0 and 1. A base 2 number system." 
        }
    ]
}
